Response Variable
…
load("../data/raw/ged/ged201.RData")
ged201$date_start = as.Date(ged201$date_start, "%Y/%m/%d")
ged201 = st_as_sf(ged201, coords =  c("longitude", "latitude"), crs = "EPSG:4326")
ged201 = ged201[which(st_intersects(st_union(adm), ged201, sparse = FALSE)), ]

ged201 %>%
  as_tibble() %>%
  mutate(date_start =  as.Date(date_start, "%Y/%m/%d")) %>%
  filter(date_start > as.Date("1999-12-31"), 
         where_prec %in% c(1,2,3),
         date_prec != 5) %>%
  select(type_of_violence, date_start, starts_with("deaths_"), country, geometry) -> response_raw
response_raw

# A tibble: 25,652 x 8
   type_of_violence date_start deaths_a deaths_b deaths_civilians deaths_unknown
              <dbl> <date>        <dbl>    <dbl>            <dbl>          <dbl>
 1                1 2000-03-14        1        0                0              0
 2                1 2000-05-05        0       14                0              0
 3                1 2000-12-24        1        0                0              1
 4                1 2001-01-21        0        4                0              0
 5                1 2001-02-08       13        0                0              0
 6                1 2001-02-19        0       18                0              0
 7                1 2001-02-23        0       19                0              0
 8                1 2001-02-23        0        8                0              0
 9                1 2001-04-06        1        0                0              0
10                1 2001-10-21        0        8                0              0
# … with 25,642 more rows, and 2 more variables: country <chr>, geometry <POINT
#   [°]>
…
